<?xml version="1.0" encoding="UTF-8" standalone="no"?>
<svg width="40" xmlns="http://www.w3.org/2000/svg" version="1.1" height="40">
 <text y="30" x="14" font-size="30" font-family="serif" fill="black">Σ</text>
</svg>
